INDEX VERSION 1.130+/home/ronan/Documents/RCP/.metadata/.plugins/org.eclipse.jdt.core
140911191.index
3193167505.index
2982035129.index
2034051285.index
3387438936.index
1932949083.index
1748966260.index
742522455.index
3047584203.index
1913109094.index
1207975584.index
1185620055.index
2808055023.index
3721837726.index
2751916009.index
3885805113.index
2066489604.index
1569038514.index
3888198363.index
2066863008.index
2233963263.index
341828384.index
1467194932.index
3214207201.index
2841451250.index
2630498905.index
3884083080.index
675085244.index
2794091428.index
46282419.index
2922302306.index
2771403403.index
3583348445.index
3157179883.index
120211678.index
2673536013.index
613460491.index
3672567570.index
1548161041.index
3122892277.index
527624335.index
799090057.index
3499632296.index
